{
    "antifeatures": {
        "Ads": "Appen inneheld reklame",
        "DisabledAlgorithm": "Appen har ein svak tryggleikssignatur",
        "KnownVuln": "Appen inneheld eit kjent tryggleikshòl",
        "NoSourceSince": "Kjeldekoden er ikkje lenger tilgjengeleg, så det er ikkje mogleg med oppdatering",
        "NonFreeAdd": "Appen marknadsfører ufrie tillegg",
        "NonFreeAssets": "Appen inneheld ufrie ressursar",
        "NonFreeDep": "Appen er avhengig av andre ufrie appar",
        "NonFreeNet": "Appen marknadsfører ufrie nett-tenester",
        "Tracking": "Appen sporar og rapporterer aktiviteten din",
        "UpstreamNonFree": "Kjeldekoden til oppstraums­appen er ikkje heilt fri"
    },
    "app_categories": {
        "Connectivity": "Samband",
        "Development": "Utvikling",
        "Games": "Spel",
        "Graphics": "Bilete",
        "Internet": "Internett",
        "Money": "Pengar",
        "Multimedia": "Multimedia",
        "Navigation": "Navigasjon",
        "Phone & SMS": "Telefon og SMS",
        "Reading": "Lesing",
        "Science & Education": "Vitskap og utdanning",
        "Security": "Tryggleik",
        "Sports & Health": "Idrett og helse",
        "System": "System",
        "Theming": "Tema",
        "Time": "Tid",
        "Writing": "Skriving",
        "show_all_packages": "Vis alle %d pakkane"
    },
    "index": {
        "download_fdroid": "Last ned F-Droid",
        "gpg_signature": "PGP-signatur",
        "introduction": "F-Droid er ein katalog over fri programvare (FOSS) for Android. Med F-Droid-appen kan kjapt og enkelt finna og installera nye appar og verta varsla når dei har oppdaterte versjonar.",
        "screenshot": "Skjermbilete av Android-appen F-Droid",
        "title": "Kva er F-Droid?"
    },
    "navigation": {
        "about": "Om",
        "apps": "Appar",
        "contribute": "Hjelp til",
        "documentation": "Dokumentasjon",
        "edit_on_gitlab": "Rediger på GitLab",
        "forum": "Brukarforum",
        "issues": "Innmelde feil",
        "news": "Nyheiter",
        "translate_on_weblate": "Set om via Weblate"
    },
    "package": {
        "added_on": "Lagt til {{ package_added_date }}",
        "anti_features": "Antifunksjonalitet",
        "anti_features_warning": "Appen har funksjonar du kanskje mislikar.",
        "author": "Utviklar",
        "build_log": "Byggjelogg",
        "build_metadata": "Metadata for appbygg",
        "changelog": "Endringslogg",
        "donate": "Gje pengegåve",
        "download": "Last ned {{ file_extension }}",
        "flattr": "Flattr",
        "gpg_signature": "PGP-signatur",
        "issue_tracker": "Innmelde feil",
        "liberapay": "Liberapay",
        "license": "Lisens",
        "minimum_android_version": "Denne versjonen krev {{ android_version }} eller nyare.",
        "new_in_version": "Ny i versjon {{ latest_version }}",
        "opencollective": "Open Collective",
        "package_icon_alt": "pakkeikon",
        "package_screenshot_alt": "app-skjermbilete",
        "packages": "Pakkar",
        "permissions": "Løyve",
        "signed_by_developer": "Han er bygd og signert av apputviklaren.",
        "signed_by_fdroid": "Han er bygd og signert av F-Droid, og er garantert å samsvara med <a href=\"{{ source_code_url }}\">denne kjeldekoden</a>.",
        "source_code": "Kjeldekode",
        "suggest_downloading_via_fdroid": "Du kan lasta ned APK-filer nedanfor, men merk at du då ikkje vil få varslingar om app­oppdateringar, og det er ein mindre trygg måte å lasta ned appar. Me tilrår å heller installera F-Droid-klienten for å lasta ned appane.",
        "suggested": "føreslått",
        "technical_info": "Teknisk informasjon",
        "translation": "Omsetjing",
        "version_info": "<b>Versjon {{ package_version }}</b> ({{ package_version_code }})",
        "website": "Heimeside"
    },
    "permissions": {
        "permdesc_acceptHandovers": "Lèt appen halda fram ein samtale som var starta i ein annan app.",
        "permdesc_accessBackgroundLocation": "Viss du gjev dette løyvet, kan appen få tilgang den (omtrentlege eller nøyaktige) posisjonen din òg når han køyrer i bakgrunnen.",
        "permdesc_accessCoarseLocation": "Appen får tilgang den omtrentlege posisjonen din når han er i bruk. Posisjons­tenester må vera slegne på for at appen skal få tilgang.",
        "permdesc_accessDrmCertificates": "Lèt appen henta og bruka DRM-sertifikat. Dette skal aldri vera nødvendig for vanlege appar.",
        "permdesc_accessFineLocation": "Appen får tilgang den nøyaktige posisjonen din når han er i bruk. Posisjons­tenester må vera slegne på for at appen skal få tilgang.Dette kan auka batteribruken.",
        "permdesc_accessImsCallService": "Lèt appen bruka IMS-tenesta til å ringja utan ditt samtykke.",
        "permdesc_accessLocationExtraCommands": "Lèt appen bruka tilleggs­kommandoar for posisjonsdata. Dette gjer at appen kan påverka GPS-bruken og andre posisjonskjelder.",
        "permdesc_accessNetworkConditions": "Lèt appen lytta etter observasjonar om nettverks­forhold. Dette skal aldri vera nødvendig for vanlege appar.",
        "permdesc_accessNetworkState": "Lèt appen visa informasjon om nettverks­tilkoplingar, for eksempel om kva nettverk som er tilgjengelege og kva nettverk du er tilkopla.",
        "permdesc_accessNotifications": "Lèt appen lesa og fjerna varslingar, òg dei frå andre appar.",
        "permdesc_accessWifiState": "Lèt appen sjå informasjon om Wi-Fi-innstillingar, for eksempel om Wi-Fi er slått og om namna på tilkopla Wi-Fi-einingar.",
        "permdesc_accessWimaxState": "Lèt appen sjå om WiMAX er slått på og lesa informasjon om eventuelle tilkopla WiMAX-nettverk.",
        "permdesc_access_notification_policy": "Lèt appen lesa og gjera endringar i «Ikkje forstyrr»-innstillingane.",
        "permdesc_activityRecognition": "Appen kan kjenna att den fysiske aktiviteten din.",
        "permdesc_addVoicemail": "Lèt appen leggja meldingar i tale­postkassen din.",
        "permdesc_answerPhoneCalls": "Lèt appen svara på innkommande telefonsamtalar.",
        "permdesc_audioWrite": "Lèt appen gjera endringar i musikksamlinga.",
        "permdesc_bindCarrierMessagingService": "Lèt appen kopla seg på toppnivå­grensesnittet for tenester for operatørmeldingar. Dette skal aldri vera nødvendig for vanlege appar.",
        "permdesc_bindCarrierServices": "Lèt appen kopla seg på operatør­tenester. Dette skal aldri vera nødvendig for vanlege appar.",
        "permdesc_bindCellBroadcastService": "Lèt appen kopla seg til CellBroadcast-modulen for å vidaresenda CB-meldingar når dei vert mottekne. Dette er masse­utsende meldingar som i nokre område vert sende under kriser og nøds­situasjonar. Vondsinna appar kan forstyrra ytinga eller åtferda til eininga di når ho mottek CB-meldingar.",
        "permdesc_bindConditionProviderService": "Lèt appen kopla seg på toppnivå­grensesnittet for tenester for leverandørar av tilstandsvilkår. Dette skal aldri vera nødvendig for vanlege appar.",
        "permdesc_bindDreamService": "Lèt appen kopla seg på toppnivå­grensesnittet for pauseskjerm­tenester. Dette skal aldri vera nødvendig for vanlege appar.",
        "permdesc_bindNotificationListenerService": "Lèt appen kopla seg på toppnivå­grensesnittet for lytte­tenesta for varslingar. Dette skal aldri vera nødvendig for vanlege appar.",
        "permdesc_bind_connection_service": "Lèt appen samhandla med tele­tenester for å ringja opp eller ta imot samtalar.",
        "permdesc_bind_incall_service": "Lèt appen styra når og korleis du får sjå skjermen for pågåande telefonsamtalar.",
        "permdesc_bluetooth": "Lèt appen sjå Bluetooth-innstillingane på telefonen, samt oppretta og godta tilkoplingar til para einingar.",
        "permdesc_bluetoothAdmin": "Lèt appen endra innstillingar for lokal Bluetooth-telefon, finna eksterne einingar og kopla til desse.",
        "permdesc_bodySensors": "Lèt appen få tilgang til data frå sensorar som overvaker helse­tilstanden din, for eksempel hjarte­rytmen din.",
        "permdesc_broadcastSticky": "Lèt appen senda varige kring­kastingar («sticky broadcasts»), som vert haldne opne etter at kring­kastinga er ferdig. Stor bruk av dette kan gjera telefon treg eller ustabil, på grunn av for høg minnebruk.",
        "permdesc_callCompanionApp": "Lèt appen sjå og styra telefon­samtalar som pågår. Dette omfattar blant anna oppringde telefon­nummer og samtalestatus.",
        "permdesc_callPhone": "Lèt appen ringja telefon­nummer utan brukar­medverknad. Dette kan føra til uventa kostnadar og samtalar. Merk at dette ikkje gjev appen løyve til å ringa nødnummer. Vondsinna appar kan påføra deg kostnadar ved å ringja til telefon­nummer utan ditt samtykke.",
        "permdesc_camera": "Appen kan ta bilete og video­opptak med kameraet når som helst.",
        "permdesc_cameraOpenCloseListener": "Appen kan motta varsling om at ei kamera­eining vert teken i bruk (og av kva app) eller stengd av.",
        "permdesc_changeNetworkState": "Lèt appen endra tilstanden til nettilkoplingar.",
        "permdesc_changeTetherState": "Lèt appen endra tilstand til delte nettilkoplingar.",
        "permdesc_changeWifiMulticastState": "Lèt appen ta imot pakkar som via multikast-adresser vert sende til alle einingane på Wi-Fi-nettverk, ikkje berre til telefonen din. Dette brukar meir straum enn ikkje-multikast-modus.",
        "permdesc_changeWifiState": "Lèt appen kopla telefonen til og frå trådlaus­soner og gjera endringar i einings­oppsettet til Wi-Fi-nettverk.",
        "permdesc_changeWimaxState": "Lèt appen kopla telefonen til og frå WiMAX-nettverk.",
        "permdesc_connection_manager": "Lèt appen administrera telekom-samband.",
        "permdesc_control_incall_experience": "Lèt appen levera ei brukarflate for pågåande telefonsamtalar.",
        "permdesc_createNetworkSockets": "Lèt appen oppretta nettverks-socket-ar og bruka eigne/tilpassa nettverks­protokollar. Nett­lesaren og andre program har alt funksjonalitet for å senda data via Internett, så dette løyve trengst ikkje for å senda slike data.",
        "permdesc_disableKeyguard": "Lèt appen slå av taste­låsen og tilknytt passord­tryggleik. Telefonen slår for eksempel av taste­låsen når du får ein telefon­samtale og slår han på att når samtalen er ferdig.",
        "permdesc_enableCarMode": "Lèt appen slå på bilmodus.",
        "permdesc_exemptFromAudioRecordRestrictions": "Frita appen frå avgrensingar i lydopptak.",
        "permdesc_expandStatusBar": "Lèt appen utvida eller slå saman statuslinja.",
        "permdesc_foregroundService": "Lèt appen bruka framgrunns­tenester.",
        "permdesc_getAccounts": "Lèt appen henta ei oversikt over kontoar på telefonen. Du omfattar eventuelle kontoar oppretta av andre installerte appar.",
        "permdesc_getPackageSize": "Lèt appen henta informasjon om storleiken på programkoden, lagra brukardata og snøgglageret til appen sjølv.",
        "permdesc_getTasks": "Lèt appen henta informasjon om oppgåver som køyrer eller nyleg er køyrde. Appen kan då oppdaga informasjon om kva appar som vert brukte på eininga.",
        "permdesc_handoverStatus": "Lèt appen få informasjon om aktuelle Android Beam-overføringar.",
        "permdesc_imagesWrite": "Lèt appen gjera endringar i biletsamlinga di.",
        "permdesc_install_shortcut": "Lèt appen leggja til snarvegar til heime­skjermen utan brukarmedverknad.",
        "permdesc_invokeCarrierSetup": "Lèt appen starta oppsett­appen til tele­operatøren. Dette skal aldri vera nødvendig for vanlege appar.",
        "permdesc_killBackgroundProcesses": "Lèt appen avslutta bakgrunns­prosessen til andre appar. Dette kan føra til at dei sluttar å køyra.",
        "permdesc_manageFace": "Lèt appen starta funksjonalitet for å leggja til eller sletta ansiktsmalar.",
        "permdesc_manageFingerprint": "Lèt appen starta funksjonalitet for å leggja til eller sletta fingeravtrykks­malar.",
        "permdesc_manageNetworkPolicy": "Lèt appen administrera nettverks­reglar og definera app­spesifikke reglar.",
        "permdesc_manageOwnCalls": "Lèt appen senda telefon­samtalar via systemet for å gje ei betre samtaleoppleving.",
        "permdesc_manageProfileAndDeviceOwners": "Lèt appen definera profil- og einingseigar.",
        "permdesc_mediaLocation": "Lèt appen lesa adressene til mediefiler i mediesamlinga.",
        "permdesc_modifyAudioSettings": "Lèt appen endra dei globale lydinnstillingane, for eksempel lydstyrke og kva høgtalarar som skal brukast til avspeling.",
        "permdesc_modifyNetworkAccounting": "Lèt appen endra korleis nettverks­bruk vert rekna ut for appar. Dette skal aldri vera nødvendig for vanlege appar.",
        "permdesc_nfc": "Lèt appen kommunisera med NFC-brikker, -kort og -lesarar.",
        "permdesc_persistentActivity": "Lèt appen la delar av seg verta verande i minnet. Det kan gjera det vert mindre ledig minne til andre appar, noko som kan gjera telefonen tregare.",
        "permdesc_preferredPaymentInfo": "Lèt appen henta informasjon om føretrekt NFC-betalingsteste, for eksempel registrerte AID-ar og rutingsmål.",
        "permdesc_processOutgoingCalls": "Lèt appen sjå telefonnummeret det vert ringt til ved utgåande samtalar, og til å flytta samtalen til eit anna nummer eller avbryta han.",
        "permdesc_readCalendar": "Appen kan lesa alle kalender­oppføringar som er lagra på telefonen og dela eller lagra kalenderdata.",
        "permdesc_readCallLog": "Appen kan lesa telefonloggen din.",
        "permdesc_readCellBroadcasts": "Lèt appen lesa CB-meldingar sende til eininga di. Dette er masse­utsende meldingar som i nokre område vert sende under kriser og nøds­situasjonar. Vondsinna appar kan forstyrra ytinga eller åtferda til eininga di når ho mottek CB-meldingar.",
        "permdesc_readContacts": "Lèt appen lesa informasjon om kontaktar lagra på telefonen. Appen vil òg ha tilgang til kontoar på telefonen som har oppretta kontaktar. Dette omfattar kontoar oppretta av appar som du har installert. Løyvet gjer det mogleg for appar å lagra kontaktdata, og vondsinna appar kan dela kontaktdataa dine med andre utan at du får veta om det.",
        "permdesc_readHistoryBookmarks": "Lèt appen lesa loggen over alle nett­adresser som har vore opna i nettlesaren, og alle bokmerka som finst. Merk at dette løyvet kanskje ikkje gjeld for tredjeparts­nettlesarar eller andre appar med nettlesar­funksjonalitet.",
        "permdesc_readInstallSessions": "Lès appen lesa informasjon om installerings­økter. Han kan då sjå detaljar om pågåande installeringar.",
        "permdesc_readNetworkUsageHistory": "Lèt appen lesa statistikk over nettverksbruk for valde nettverk og appar.",
        "permdesc_readPhoneNumbers": "Lèt appen få tilgang til telefonnummeret til eininga.",
        "permdesc_readPhoneState": "Lèt appen få tilgang til telefon­funksjonalitet på eininga. Appen kan då lesa telefon­nummeret og einings-ID-en til eininga, sjå om ein samtale er i gang og eventuelt med kva telefonnummer.",
        "permdesc_readSms": "Appen kan lesa alle tekstmeldingane (SMS) som er lagra på telefonen.",
        "permdesc_readSyncSettings": "Lèt appen endra synkroniserings­innstillingane for kontoar. Dette kan for eksempel brukast til å sjå om Kontaktar-appen vert synkronisert med ein konto.",
        "permdesc_readSyncStats": "Lèt appen lesa synkroniserings­statistikk for kontoar. Han kan blant anna lesa loggen med synkroniserings­hendingar og informasjon om kor mykje data som er synkronisert.",
        "permdesc_receiveBootCompleted": "Lèt appen be om å startast automatisk ved oppstart av eininga. Dette kan gjera at det tek lengre tid å starta eininga, og appen kan gjera heile systemet tregare ved alltid å køyra.",
        "permdesc_receiveMms": "Lèt appen ta imot og administrera MMS-meldingar. Appen kan då overvaka og sletta meldingar du får utan å visa dei til deg først.",
        "permdesc_receiveSms": "Lèt appen ta imot og administrera SMS-meldingar. Appen kan då overvaka og sletta meldingar du får utan å visa dei til deg først.",
        "permdesc_receiveWapPush": "Lèt appen ta imot og administrera WAP-meldingar. Appen kan då overvaka og sletta meldingar du får utan å visa dei til deg først.",
        "permdesc_recordAudio": "Appen kan gjera lydopptak med mikrofonen når som helst.",
        "permdesc_register_call_provider": "Lèt appen registrera nye teleoperatørsamband.",
        "permdesc_register_sim_subscription": "Lèt appen registrera nye SIM-teleoperatørsamband.",
        "permdesc_removeDrmCertificates": "Lèt appen fjerna DRM-sertifikat. Dette skal aldri vera nødvendig for vanlege appar.",
        "permdesc_reorderTasks": "Lèt appen flytta oppgåver mellom fram- og bakgrunnen. Appen kan gjera dette utan å spørja deg først.",
        "permdesc_requestDeletePackages": "Lèt appen be om avinstallering av andre appar.",
        "permdesc_requestIgnoreBatteryOptimizations": "Lèt appen be om løyve til å ignorera batteri­optimaliseringane for appen.",
        "permdesc_requestInstallPackages": "Lèt appen be om installering av pakkar.",
        "permdesc_requestPasswordComplexity": "Lèt appen lesa informasjon om nivået til låseskjermen (høgt, middels, lågt eller inkje), som seier noko om typen låseskjerm og om kor lenge han er på. Appen kan òg føreslå for deg å endra låseskjerm­nivået til eit visst nivå, men du kan ignorera denne førespurnaden. Merk at låseskjerms­informasjon ikkje vert lagra som reint tekst, så appen vil ikkje kunna lesa passordet ditt.",
        "permdesc_route_media_output": "Lèt appen vidaresenda medieinnhald til eksterne einingar.",
        "permdesc_runInBackground": "Appen kan køyra i bakgrunnen. Dette kan auka batteribruken.",
        "permdesc_sdcardRead": "Lèt appen lesa innhaldet på felles lagringsområde.",
        "permdesc_sdcardWrite": "Lèt appen lagra innhald på felles lagringsområde.",
        "permdesc_sendSms": "Lèt appen senda SMS-meldingar. Dette kan medføra uventa kostnadar. Vondsinna appar kan påføra deg kostnadar ved å senda tekst­meldingar utan ditt samtykke.",
        "permdesc_setAlarm": "Lèt appen stilla inn alarmar i installerte vekkjarklokke-appar. Ikkje alle vekkjarklokke-appar støttar dette.",
        "permdesc_setInputCalibration": "Lèt appen endra kalibrerings­parametrane for peike­skjermen. Dette skal aldri vera nødvendig for vanlege appar.",
        "permdesc_setTimeZone": "Lèt appen endra tidssona til telefonen.",
        "permdesc_setWallpaper": "Lèt appen endra system­bakgrunnsbiletet.",
        "permdesc_setWallpaperHints": "Lèt appen definera storleikshint for system­bakgrunnsbiletet.",
        "permdesc_sim_communication": "Lèt appen senda kommandoar til SIM-kortet. Dette er veldig farleg.",
        "permdesc_startViewPermissionUsage": "Lèt appen starta vising av løyvebruk for andre appar. Dette skal aldri vera nødvendig for vanlege appar.",
        "permdesc_statusBar": "Lèt appen gøyma statuslinja og leggja til eller fjerna systemikon.",
        "permdesc_statusBarService": "Lèt appen visast som statuslinje.",
        "permdesc_subscribedFeedsRead": "Lèt appen henta informasjon om innhalds­kjelder som vert synkroniserte.",
        "permdesc_systemAlertWindow": "Lèt appen visast over andre appar og andre delar av skjermen. Dette kan påverka normal bruk av appane og måten dei framstår på.",
        "permdesc_systemCamera": "Denne appen med utvida løyve / systemappen kan ta bilete og videoopptak med eit kamera når som helst. Krev at appen også har løyvet android.permission.CAMERA.",
        "permdesc_transmitIr": "Lèt appen bruka infraraud­sendaren til telefonen.",
        "permdesc_uninstall_shortcut": "Lèt appen fjerna snarvegar på heime­skjermen utan brukar­medverknad.",
        "permdesc_useBiometric": "Lèt appen bruka biometrisk maskinvare for autentisering.",
        "permdesc_useDataInBackground": "Appen kan bruka data i bakgrunnen. Dette kan føra til større bruk av mobildata.",
        "permdesc_useFaceAuthentication": "Lèt appen bruka ansiktsgjenkjenning for autentisering.",
        "permdesc_useFingerprint": "Lèt appen bruka fingeravtrykks­lesaren for autentisering.",
        "permdesc_use_sip": "Lèt appen føreta og ta imot SIP-samtalar.",
        "permdesc_vibrate": "Lèt appen styra vibrerings­funksjonen.",
        "permdesc_vibrator_state": "Lèt appen få tilgang til vibreringsstatusen.",
        "permdesc_videoWrite": "Lèt appen gjera endringar i videosamlinga.",
        "permdesc_wakeLock": "Lèt appen hindra at telefonen går i kvilemodus.",
        "permdesc_writeCalendar": "Appen kan leggja til, fjerna eller gjera endringar i kalender­oppføringar på telefonen. Han kan senda meldingar som ser ut til å komma frå kalendereigarane, og han kan endra kalender­oppføringar utan å varsla eigarane.",
        "permdesc_writeCallLog": "Lèt appen gjera endringa i samtaleloggen, som informasjon om innkommande og utgåande samtalar. Vondsinna appar kan bruka dette til å sletta eller endra samtaleloggen.",
        "permdesc_writeContacts": "Lèt appen gjera endringar i detaljane om kontaktar lagra på telefonen. Løyvet gjer det òg mogleg å sletta kontaktdata.",
        "permdesc_writeGeolocationPermissions": "Lèt appen endra nettlesar­løyva for geografisk posisjon. Vondsinna appar kan bruka dette til å senda informasjon om kor du er til vilkårlege nettsider.",
        "permdesc_writeHistoryBookmarks": "Lèt appen gjera endringar i nettlesar­loggen og bokmerke lagra på telefonen. Appen kan då sletta desse dataa. Merk at dette løyvet kanskje ikkje gjeld for tredjeparts­nettlesarar eller andre appar med nettlesar­funksjonalitet.",
        "permdesc_writeSettings": "Lèt appen gjera endringar i system­innstillingane. Vondsinna appar kan bruka dette til å øydeleggja systemoppsettet.",
        "permdesc_writeSyncSettings": "Lèt appen endra synkroniserings­innstillingane for kontoen. Dette kan for eksempel brukast til å slå på synkronisering av Kontaktar-appen med ein konto.",
        "permgroupbackgroundrequest_location": "Lèt appen be om posisjonsdata når han køyrer i bakgrunnen.",
        "permgroupbackgroundrequestdetail_location": "Appen har no tilgang til den geografiske plasseringa di berre mens du brukar appen.",
        "permgroupdesc_activityRecognition": "få tilgang om din fysiske aktivitet",
        "permgroupdesc_calendar": "få tilgang til kalenderen",
        "permgroupdesc_calllog": "lesa og endra samtaleloggen",
        "permgroupdesc_camera": "ta bilete og videoopptak",
        "permgroupdesc_contacts": "sjå kontaktane dine",
        "permgroupdesc_location": "få tilgang til geografisk plassering",
        "permgroupdesc_microphone": "ta opp lyd",
        "permgroupdesc_phone": "ringja og administrera oppringing",
        "permgroupdesc_sensors": "få tilgang til sensordata om kroppssignal",
        "permgroupdesc_sms": "senda og visa SMS-meldingar",
        "permgroupdesc_storage": "få tilgang til bilete, medieinnhald og filer på eininga",
        "permgrouplab_activityRecognition": "Fysisk aktivitet",
        "permgrouplab_calendar": "Kalender",
        "permgrouplab_calllog": "Telefonloggar",
        "permgrouplab_camera": "Kamera",
        "permgrouplab_contacts": "Kontaktar",
        "permgrouplab_location": "Plassering",
        "permgrouplab_microphone": "Mikrofon",
        "permgrouplab_phone": "Telefonnummer",
        "permgrouplab_sensors": "Kroppssensorar",
        "permgrouplab_sms": "SMS",
        "permgrouplab_storage": "Lagring",
        "permgrouprequest_activityRecognition": "Lèt appen spora aktiviteten din.",
        "permgrouprequest_calendar": "Tillat <b>",
        "permgrouprequest_calllog": "Tillat <b>",
        "permgrouprequest_camera": "Tillat <b>",
        "permgrouprequest_contacts": "Tillat <b>",
        "permgrouprequest_location": "Tillat <b>",
        "permgrouprequest_microphone": "Tillat <b>",
        "permgrouprequest_phone": "Tillat <b>",
        "permgrouprequest_sensors": "Tillat <b>",
        "permgrouprequest_sms": "Tillat <b>",
        "permgrouprequest_storage": "Tillat <b>",
        "permgrouprequestdetail_location": "Appen vil berre ha tilgang til den geografiske plasseringa di mens du brukar appen.",
        "permlab_acceptHandover": "halda fram ein samtale frå ein annan app",
        "permlab_accessBackgroundLocation": "få tilgang til geografisk plassering ved køyring i bakgrunnen",
        "permlab_accessCoarseLocation": "få tilgang til omtrentleg posisjon berre ved køyring i framgrunnen",
        "permlab_accessDrmCertificates": "få tilgang til DRM-sertifikat",
        "permlab_accessFineLocation": "få tilgang til nøyaktig posisjon berre ved køyring i framgrunnen",
        "permlab_accessImsCallService": "få tilgang til IMS-tenester",
        "permlab_accessLocationExtraCommands": "bruka tilleggs­kommandoar for posisjonsdata",
        "permlab_accessNetworkConditions": "lytta etter observasjonar om nettverksforhold",
        "permlab_accessNetworkState": "sjå nettverkstilkoplingar",
        "permlab_accessNotifications": "få tilgang til varsel",
        "permlab_accessWifiState": "sjå Wi-Fi-tilkoplingar",
        "permlab_accessWimaxState": "kopla til og frå WiMAX",
        "permlab_access_notification_policy": "få tilgang til «Ikkje forstyrr»",
        "permlab_activityRecognition": "kjenn att fysisk aktivitet",
        "permlab_addVoicemail": "leggja til talepost",
        "permlab_answerPhoneCalls": "svara på oppringingar",
        "permlab_audioWrite": "gjera endringa i musikksamlinga di",
        "permlab_bindCarrierMessagingService": "kopla til tenester for operatørmeldingar",
        "permlab_bindCarrierServices": "kopla til operatørtenester",
        "permlab_bindCellBroadcastService": "lesa meldingar frå teleoperatør",
        "permlab_bindConditionProviderService": "kopla seg til tenester for leverandørar av tilstandsvilkår",
        "permlab_bindDreamService": "kopla seg til pauseskjerm-tenester",
        "permlab_bindNotificationListenerService": "kopla seg på lytteteneste for varslingar",
        "permlab_bind_connection_service": "samhandla med teletenester",
        "permlab_bind_incall_service": "styra skjermen for pågåande telefonsamtalar",
        "permlab_bluetooth": "para med Bluetooth-einingar",
        "permlab_bluetoothAdmin": "få tilgang til Bluetooth-innstillingar",
        "permlab_bodySensors": "få tilgang til kropps­sensorar (for eksempel pulsmålarar)",
        "permlab_broadcastSticky": "senda varige kringkastingar",
        "permlab_callCompanionApp": "lesa og administrera oppringing via systemet",
        "permlab_callPhone": "ringja telefonnummer direkte",
        "permlab_camera": "ta bilete og videoopptak",
        "permlab_cameraOpenCloseListener": "Lèt appen eller tenesta motta varsling om at ei kamera­eining vert teken i bruk eller stengd av.",
        "permlab_changeNetworkState": "endra nettilkoplingar",
        "permlab_changeTetherState": "administrera delte nettilkoplingar",
        "permlab_changeWifiMulticastState": "ta imot sendingar via Wi-Fi-multikast",
        "permlab_changeWifiState": "kopla til og frå Wi-Fi",
        "permlab_changeWimaxState": "endra WiMAX-status",
        "permlab_connection_manager": "administrera telekom-samband",
        "permlab_control_incall_experience": "levera brukarflate for pågåande telefonsamtalar",
        "permlab_createNetworkSockets": "ha full nettverkstilgang",
        "permlab_disableKeyguard": "slå av skjermlåsen",
        "permlab_enableCarMode": "slå på bilmodus",
        "permlab_exemptFromAudioRecordRestrictions": "frita frå avgrensingar i lydopptak",
        "permlab_expandStatusBar": "utvida og slå saman statuslinja",
        "permlab_foregroundService": "køyra teneste i framgrunnen",
        "permlab_getAccounts": "finna kontoar på eininga",
        "permlab_getPackageSize": "måla plassbruk for appar",
        "permlab_getTasks": "få oversikt over appar som køyrer",
        "permlab_handoverStatus": "henta informasjon Android Beam-overføringar",
        "permlab_imagesWrite": "gjera endringa i biletsamlinga di",
        "permlab_install_shortcut": "installera snarvegar",
        "permlab_invokeCarrierSetup": "starta oppsett­appen til tele­operatøren",
        "permlab_killBackgroundProcesses": "lukka andre appar",
        "permlab_manageFace": "administrera ansiktsgjenkjenning for opplåsing",
        "permlab_manageFingerprint": "administrera fingeravtrykkslesar",
        "permlab_manageNetworkPolicy": "administrera nettverks­reglar",
        "permlab_manageOwnCalls": "vidaresenda telefonsamtalar gjennom systemet",
        "permlab_manageProfileAndDeviceOwners": "administrera profil og einingseigarar",
        "permlab_mediaLocation": "lesa filadresser frå mediesamlinga",
        "permlab_modifyAudioSettings": "endra lydinnstillingar",
        "permlab_modifyNetworkAccounting": "endra korleis nettverksbruk vert utrekna",
        "permlab_nfc": "styra NFC-kommunikasjon",
        "permlab_persistentActivity": "velja at appen alltid skal køyra",
        "permlab_preferredPaymentInfo": "Informasjon om føretrekt NFC-betalingsteneste",
        "permlab_processOutgoingCalls": "vidaresenda innkommande samtalar",
        "permlab_readCalendar": "lesa detaljar om kalenderoppføringar",
        "permlab_readCallLog": "lesa samtaleloggen",
        "permlab_readCellBroadcasts": "lesa meldingar frå teleoperatør",
        "permlab_readContacts": "få tilgang til kontaktlista",
        "permlab_readHistoryBookmarks": "lesa vevbokmerke og nettlogg",
        "permlab_readInstallSessions": "sjå installeringsøkter",
        "permlab_readNetworkUsageHistory": "lesa tidlegare nettverksbruk",
        "permlab_readPhoneNumbers": "lesa telefonnummer",
        "permlab_readPhoneState": "les telefonstatus og -identitet",
        "permlab_readSms": "les tekstmeldingar (SMS eller MMS)",
        "permlab_readSyncSettings": "lesa synkroniserings­innstillingar",
        "permlab_readSyncStats": "lesa synkroniserings­statistikk",
        "permlab_receiveBootCompleted": "køyra ved oppstart",
        "permlab_receiveMms": "ta imot tekstmeldingar (MMS)",
        "permlab_receiveSms": "ta imot tekstmeldingar (SMS)",
        "permlab_receiveWapPush": "ta imot tekstmeldingar (WAP)",
        "permlab_recordAudio": "ta opp lyd",
        "permlab_register_call_provider": "registrera nye telesamband",
        "permlab_register_sim_subscription": "registrera nye SIM-baserte telesamband",
        "permlab_removeDrmCertificates": "fjerna DRM-sertifikat",
        "permlab_reorderTasks": "endra rekkjefølgja på appar som køyrer",
        "permlab_requestDeletePackages": "be om avinstallering av pakkar",
        "permlab_requestIgnoreBatteryOptimizations": "be om ignorering av batterioptimaliseringar",
        "permlab_requestInstallPackages": "be om pakkeinstallering",
        "permlab_requestPasswordComplexity": "lesa informasjon om låseskjermsnivå",
        "permlab_route_media_output": "vidaresenda medieinnhald",
        "permlab_runInBackground": "køyra i bakgrunnen",
        "permlab_sdcardRead": "lesa innhaldet på felles lagringsområde",
        "permlab_sdcardWrite": "endra eller sletta innhaldet på felles lagringsområde",
        "permlab_sendSms": "senda og visa SMS-meldingar",
        "permlab_setAlarm": "stilla inn alarmar",
        "permlab_setInputCalibration": "endra kalibreringa av inneiningar",
        "permlab_setTimeZone": "endra tidssona",
        "permlab_setWallpaper": "byta bakgrunnsbiletet",
        "permlab_setWallpaperHints": "endra storleik på bakgrunnsbilete",
        "permlab_sim_communication": "senda kommandoar til SIM-kortet",
        "permlab_startViewPermissionUsage": "starta vising av løyvebruk",
        "permlab_statusBar": "fjerna eller endra statuslinja",
        "permlab_statusBarService": "vera statuslinje",
        "permlab_subscribedFeedsRead": "lesa abonnement på nyheitskjelder",
        "permlab_systemAlertWindow": "Appen kan liggja over andre appar.",
        "permlab_systemCamera": "Lèt appen eller tenesta få tilgang til kamera for å ta bilete eller gjera videoopptak.",
        "permlab_transmitIr": "infraraud overføring",
        "permlab_uninstall_shortcut": "avinstallera snarvegar",
        "permlab_useBiometric": "bruka biometrisk maskinvare",
        "permlab_useDataInBackground": "bruka data ved køyring i bakgrunnen",
        "permlab_useFaceAuthentication": "bruka ansiktsgjenkjenning for opplåsing",
        "permlab_useFingerprint": "bruka fingeravtrykkslesar",
        "permlab_use_sip": "føreta og ta imot SIP-samtalar",
        "permlab_vibrate": "styra vibrering",
        "permlab_videoWrite": "endra videosamlinga di",
        "permlab_wakeLock": "hindra at telefonen går i kvilemodus",
        "permlab_writeCalendar": "leggja til eller endra kalender­oppføringar og senda e-post til deltakarar utan at du vert varsla om det",
        "permlab_writeCallLog": "gjera endringar i samtaleloggen",
        "permlab_writeContacts": "gjera endringar i kontaktane dine",
        "permlab_writeGeolocationPermissions": "endra nettlesarløyva for informasjon om geografisk plassering",
        "permlab_writeHistoryBookmarks": "laga vevbokmerke og nettlogg",
        "permlab_writeSettings": "endra systeminnstillingane",
        "permlab_writeSyncSettings": "slå på og av synkronisering"
    },
    "sidebars": {
        "donate": {
            "bank_transfer_name": "Namn",
            "bitcoin_alt": "Gje pengegåve via Bitcoin",
            "flattr_alt": "Gje pengegåve via Flattr",
            "heading": "Gje pengegåve",
            "hellotux": "👕 T-skjorter 👕 frå",
            "hellotux_alt": "HELLOTUX",
            "hellotux_donation": "F-Droid får 3 euro for kvar selde T-skjorte.",
            "liberapay_alt": "Gje pengegåve via Liberapay",
            "litecoin_alt": "Gje pengegåve via Litecoin",
            "opencollective_alt": "Gje pengegåve via Open Collective",
            "paypal_alt": "Gje pengegåve via PayPal",
            "powered_by_donations": "F-Droid vert finansiert av pengegåver!",
            "via_bank_transfer": "Bankoverføring"
        },
        "lang": {
            "change": "Endra"
        },
        "last_updated": {
            "heading": "Sist oppdatert"
        },
        "latest_packages": {
            "heading": "Nyaste appar"
        },
        "news": {
            "heading": "Nyheiter"
        },
        "search": {
            "heading": "Finn appar",
            "noscript": "Krev at JavaScript er slått på",
            "search": "Søk"
        }
    }
}
